<?xml version="1.0" encoding="utf-16"?>
<Modifiers xmlns:xsi="http://www.w3.org/2001/XMLSchema-instance" xmlns:xsd="http://www.w3.org/2001/XMLSchema">
  <Ammos>
    <AmmoMod>
      <AmmoName>AryxShotgunAmmoWC</AmmoName>
      <Variable>BaseDamage</Variable>
      <Value>6000</Value>
    </AmmoMod>
    <AmmoMod>
      <AmmoName>AryxShotgunAmmoWC</AmmoName>
      <Variable>Mass</Variable>
      <Value>1</Value>
    </AmmoMod>
    <AmmoMod>
      <AmmoName>AryxShotgunAmmoWC</AmmoName>
      <Variable>DamageScales/Grids/Large</Variable>
      <Value>-1</Value>
    </AmmoMod>
    <AmmoMod>
      <AmmoName>AryxShotgunAmmoWC</AmmoName>
      <Variable>DamageScales/Grids/Small</Variable>
      <Value>0.5</Value>
    </AmmoMod>
    <AmmoMod>
      <AmmoName>AryxShotgunAmmoWC</AmmoName>
      <Variable>DamageScales/Armor/Armor</Variable>
      <Value>-1</Value>
    </AmmoMod>
    <AmmoMod>
      <AmmoName>AryxShotgunAmmoWC</AmmoName>
      <Variable>DamageScales/Armor/Heavy</Variable>
      <Value>-1</Value>
    </AmmoMod>
    <AmmoMod>
      <AmmoName>AryxShotgunAmmoWC</AmmoName>
      <Variable>DamageScales/Armor/Light</Variable>
      <Value>-1</Value>
    </AmmoMod>
    <AmmoMod>
      <AmmoName>AryxShotgunAmmoWC</AmmoName>
      <Variable>DamageScales/Armor/NonArmor</Variable>
      <Value>2</Value>
    </AmmoMod>
    <AmmoMod>
      <AmmoName>40mm ATLAS</AmmoName>
      <Variable>BaseDamage</Variable>
      <Value>600</Value>
    </AmmoMod>
    <AmmoMod>
      <AmmoName>40mm ATLAS</AmmoName>
      <Variable>Mass</Variable>
      <Value>1</Value>
    </AmmoMod>
    <AmmoMod>
      <AmmoName>40mm ATLAS</AmmoName>
      <Variable>DamageScales/Grids/Large</Variable>
      <Value>2</Value>
    </AmmoMod>
    <AmmoMod>
      <AmmoName>40mm ATLAS</AmmoName>
      <Variable>DamageScales/Grids/Small</Variable>
      <Value>5</Value>
    </AmmoMod>
    <AmmoMod>
      <AmmoName>40mm ATLAS</AmmoName>
      <Variable>DamageScales/Armor/Armor</Variable>
      <Value>-1</Value>
    </AmmoMod>
    <AmmoMod>
      <AmmoName>40mm ATLAS</AmmoName>
      <Variable>DamageScales/Armor/Heavy</Variable>
      <Value>3</Value>
    </AmmoMod>
    <AmmoMod>
      <AmmoName>40mm ATLAS</AmmoName>
      <Variable>DamageScales/Armor/Light</Variable>
      <Value>-1</Value>
    </AmmoMod>
    <AmmoMod>
      <AmmoName>40mm ATLAS</AmmoName>
      <Variable>DamageScales/Armor/NonArmor</Variable>
      <Value>-1</Value>
    </AmmoMod>
    <AmmoMod>
      <AmmoName>40mm ATLAS</AmmoName>
      <Variable>Trajectory/MaxTrajectory</Variable>
      <Value>1000</Value>
    </AmmoMod>
    <AmmoMod>
      <AmmoName>40mm ATLAS</AmmoName>
      <Variable>Trajectory/DesiredSpeed</Variable>
      <Value>800</Value>
    </AmmoMod>
    <AmmoMod>
      <AmmoName>AryxAutocannonAmmoWC</AmmoName>
      <Variable>BaseDamage</Variable>
      <Value>1500</Value>
    </AmmoMod>
    <AmmoMod>
      <AmmoName>AryxAutocannonAmmoWC</AmmoName>
      <Variable>Mass</Variable>
      <Value>5</Value>
    </AmmoMod>
    <AmmoMod>
      <AmmoName>AryxAutocannonAmmoWC</AmmoName>
      <Variable>DamageScales/Grids/Large</Variable>
      <Value>5</Value>
    </AmmoMod>
    <AmmoMod>
      <AmmoName>AryxAutocannonAmmoWC</AmmoName>
      <Variable>DamageScales/Grids/Small</Variable>
      <Value>5</Value>
    </AmmoMod>
    <AmmoMod>
      <AmmoName>AryxAutocannonAmmoWC</AmmoName>
      <Variable>DamageScales/Armor/Armor</Variable>
      <Value>-1</Value>
    </AmmoMod>
    <AmmoMod>
      <AmmoName>AryxAutocannonAmmoWC</AmmoName>
      <Variable>DamageScales/Armor/Heavy</Variable>
      <Value>-1</Value>
    </AmmoMod>
    <AmmoMod>
      <AmmoName>AryxAutocannonAmmoWC</AmmoName>
      <Variable>DamageScales/Armor/Light</Variable>
      <Value>0.5</Value>
    </AmmoMod>
    <AmmoMod>
      <AmmoName>AryxAutocannonAmmoWC</AmmoName>
      <Variable>DamageScales/Armor/NonArmor</Variable>
      <Value>-1</Value>
    </AmmoMod>
    <AmmoMod>
      <AmmoName>AryxAutocannonAmmoWC</AmmoName>
      <Variable>Trajectory/MaxTrajectory</Variable>
      <Value>1300</Value>
    </AmmoMod>
    <AmmoMod>
      <AmmoName>AryxAutocannonAmmoWC</AmmoName>
      <Variable>Trajectory/DesiredSpeed</Variable>
      <Value>600</Value>
    </AmmoMod>
    <AmmoMod>
      <AmmoName>Punisher AP 70mm</AmmoName>
      <Variable>BaseDamage</Variable>
      <Value>2500</Value>
    </AmmoMod>
    <AmmoMod>
      <AmmoName>Punisher AP 70mm</AmmoName>
      <Variable>Mass</Variable>
      <Value>10</Value>
    </AmmoMod>
    <AmmoMod>
      <AmmoName>Punisher AP 70mm</AmmoName>
      <Variable>DamageScales/Grids/Large</Variable>
      <Value>12</Value>
    </AmmoMod>
    <AmmoMod>
      <AmmoName>Punisher AP 70mm</AmmoName>
      <Variable>DamageScales/Grids/Small</Variable>
      <Value>2</Value>
    </AmmoMod>
    <AmmoMod>
      <AmmoName>Punisher AP 70mm</AmmoName>
      <Variable>DamageScales/Armor/Armor</Variable>
      <Value>1.5</Value>
    </AmmoMod>
    <AmmoMod>
      <AmmoName>Punisher AP 70mm</AmmoName>
      <Variable>DamageScales/Armor/Heavy</Variable>
      <Value>-1</Value>
    </AmmoMod>
    <AmmoMod>
      <AmmoName>Punisher AP 70mm</AmmoName>
      <Variable>DamageScales/Armor/Light</Variable>
      <Value>0.5</Value>
    </AmmoMod>
    <AmmoMod>
      <AmmoName>Punisher AP 70mm</AmmoName>
      <Variable>DamageScales/Armor/NonArmor</Variable>
      <Value>-1</Value>
    </AmmoMod>
    <AmmoMod>
      <AmmoName>Punisher AP 70mm</AmmoName>
      <Variable>Trajectory/MaxTrajectory</Variable>
      <Value>1500</Value>
    </AmmoMod>
    <AmmoMod>
      <AmmoName>Punisher AP 70mm</AmmoName>
      <Variable>Trajectory/DesiredSpeed</Variable>
      <Value>600</Value>
    </AmmoMod>
    <AmmoMod>
      <AmmoName>Punisher HE 70mm</AmmoName>
      <Variable>EnergyCost</Variable>
      <Value>0</Value>
    </AmmoMod>
    <AmmoMod>
      <AmmoName>Punisher HE 70mm</AmmoName>
      <Variable>BaseDamage</Variable>
      <Value>0</Value>
    </AmmoMod>
    <AmmoMod>
      <AmmoName>Punisher HE 70mm</AmmoName>
      <Variable>Mass</Variable>
      <Value>0</Value>
    </AmmoMod>
    <AmmoMod>
      <AmmoName>Punisher HE 70mm</AmmoName>
      <Variable>DamageScales/Grids/Large</Variable>
      <Value>0</Value>
    </AmmoMod>
    <AmmoMod>
      <AmmoName>Punisher HE 70mm</AmmoName>
      <Variable>DamageScales/Grids/Small</Variable>
      <Value>0</Value>
    </AmmoMod>
    <AmmoMod>
      <AmmoName>Punisher HE 70mm</AmmoName>
      <Variable>DamageScales/Armor/Armor</Variable>
      <Value>0</Value>
    </AmmoMod>
    <AmmoMod>
      <AmmoName>Punisher HE 70mm</AmmoName>
      <Variable>DamageScales/Armor/Heavy</Variable>
      <Value>0</Value>
    </AmmoMod>
    <AmmoMod>
      <AmmoName>Punisher HE 70mm</AmmoName>
      <Variable>DamageScales/Armor/Light</Variable>
      <Value>0</Value>
    </AmmoMod>
    <AmmoMod>
      <AmmoName>Punisher HE 70mm</AmmoName>
      <Variable>DamageScales/Armor/NonArmor</Variable>
      <Value>0</Value>
    </AmmoMod>
    <AmmoMod>
      <AmmoName>Punisher HE 70mm</AmmoName>
      <Variable>AreaOfDamage/EndOfLife/Radius</Variable>
      <Value>0</Value>
    </AmmoMod>
    <AmmoMod>
      <AmmoName>Punisher HE 70mm</AmmoName>
      <Variable>AreaOfDamage/EndOfLife/Damage</Variable>
      <Value>0</Value>
    </AmmoMod>
    <AmmoMod>
      <AmmoName>Punisher HE 70mm</AmmoName>
      <Variable>AreaOfDamage/EndOfLife/Depth</Variable>
      <Value>0</Value>
    </AmmoMod>
    <AmmoMod>
      <AmmoName>AryxFlakShrapWC</AmmoName>
      <Variable>DamageScales/Grids/Large</Variable>
      <Value>-1</Value>
    </AmmoMod>
    <AmmoMod>
      <AmmoName>AryxFlakShrapWC</AmmoName>
      <Variable>DamageScales/Grids/Small</Variable>
      <Value>-1</Value>
    </AmmoMod>
    <AmmoMod>
      <AmmoName>AryxFlakShrapWC</AmmoName>
      <Variable>DamageScales/Armor/Armor</Variable>
      <Value>-1</Value>
    </AmmoMod>
    <AmmoMod>
      <AmmoName>AryxFlakShrapWC</AmmoName>
      <Variable>DamageScales/Armor/Heavy</Variable>
      <Value>-1</Value>
    </AmmoMod>
    <AmmoMod>
      <AmmoName>AryxFlakShrapWC</AmmoName>
      <Variable>DamageScales/Armor/Light</Variable>
      <Value>-1</Value>
    </AmmoMod>
    <AmmoMod>
      <AmmoName>AryxFlakShrapWC</AmmoName>
      <Variable>DamageScales/Armor/NonArmor</Variable>
      <Value>-1</Value>
    </AmmoMod>
    <AmmoMod>
      <AmmoName>480mm Heavy Shell</AmmoName>
      <Variable>BaseDamage</Variable>
      <Value>35000</Value>
    </AmmoMod>
    <AmmoMod>
      <AmmoName>480mm Heavy Shell</AmmoName>
      <Variable>Mass</Variable>
      <Value>2500</Value>
    </AmmoMod>
    <AmmoMod>
      <AmmoName>480mm Heavy Shell</AmmoName>
      <Variable>DamageScales/Grids/Large</Variable>
      <Value>3</Value>
    </AmmoMod>
    <AmmoMod>
      <AmmoName>480mm Heavy Shell</AmmoName>
      <Variable>DamageScales/Grids/Small</Variable>
      <Value>-1</Value>
    </AmmoMod>
    <AmmoMod>
      <AmmoName>480mm Heavy Shell</AmmoName>
      <Variable>DamageScales/Armor/Armor</Variable>
      <Value>-1</Value>
    </AmmoMod>
    <AmmoMod>
      <AmmoName>480mm Heavy Shell</AmmoName>
      <Variable>DamageScales/Armor/Heavy</Variable>
      <Value>2</Value>
    </AmmoMod>
    <AmmoMod>
      <AmmoName>480mm Heavy Shell</AmmoName>
      <Variable>DamageScales/Armor/Light</Variable>
      <Value>0.5</Value>
    </AmmoMod>
    <AmmoMod>
      <AmmoName>480mm Heavy Shell</AmmoName>
      <Variable>DamageScales/Armor/NonArmor</Variable>
      <Value>-1</Value>
    </AmmoMod>
    <AmmoMod>
      <AmmoName>480mm Heavy Shell</AmmoName>
      <Variable>Trajectory/MaxTrajectory</Variable>
      <Value>2500</Value>
    </AmmoMod>
    <AmmoMod>
      <AmmoName>480mm Heavy Shell</AmmoName>
      <Variable>Trajectory/DesiredSpeed</Variable>
      <Value>500</Value>
    </AmmoMod>
    <AmmoMod>
      <AmmoName>480mm Heavy Shell</AmmoName>
      <Variable>AreaOfDamage/EndOfLife/Radius</Variable>
      <Value>4</Value>
    </AmmoMod>
    <AmmoMod>
      <AmmoName>480mm Heavy Shell</AmmoName>
      <Variable>AreaOfDamage/EndOfLife/Damage</Variable>
      <Value>50000</Value>
    </AmmoMod>
    <AmmoMod>
      <AmmoName>480mm Heavy Shell</AmmoName>
      <Variable>AreaOfDamage/EndOfLife/Depth</Variable>
      <Value>3</Value>
    </AmmoMod>
    <AmmoMod>
      <AmmoName>480mm Heavy Shell</AmmoName>
      <Variable>AreaOfDamage/EndOfLife/ParticleScale</Variable>
      <Value>1.5</Value>
    </AmmoMod>
    <AmmoMod>
      <AmmoName>600mm Heavy Shell</AmmoName>
      <Variable>BaseDamage</Variable>
      <Value>45000</Value>
    </AmmoMod>
    <AmmoMod>
      <AmmoName>600mm Heavy Shell</AmmoName>
      <Variable>Mass</Variable>
      <Value>3000</Value>
    </AmmoMod>
    <AmmoMod>
      <AmmoName>600mm Heavy Shell</AmmoName>
      <Variable>DamageScales/Grids/Large</Variable>
      <Value>3</Value>
    </AmmoMod>
    <AmmoMod>
      <AmmoName>600mm Heavy Shell</AmmoName>
      <Variable>DamageScales/Grids/Small</Variable>
      <Value>-1</Value>
    </AmmoMod>
    <AmmoMod>
      <AmmoName>600mm Heavy Shell</AmmoName>
      <Variable>DamageScales/Armor/Armor</Variable>
      <Value>-1</Value>
    </AmmoMod>
    <AmmoMod>
      <AmmoName>600mm Heavy Shell</AmmoName>
      <Variable>DamageScales/Armor/Heavy</Variable>
      <Value>2</Value>
    </AmmoMod>
    <AmmoMod>
      <AmmoName>600mm Heavy Shell</AmmoName>
      <Variable>DamageScales/Armor/Light</Variable>
      <Value>0.5</Value>
    </AmmoMod>
    <AmmoMod>
      <AmmoName>600mm Heavy Shell</AmmoName>
      <Variable>DamageScales/Armor/NonArmor</Variable>
      <Value>-1</Value>
    </AmmoMod>
    <AmmoMod>
      <AmmoName>600mm Heavy Shell</AmmoName>
      <Variable>Trajectory/MaxTrajectory</Variable>
      <Value>3000</Value>
    </AmmoMod>
    <AmmoMod>
      <AmmoName>600mm Heavy Shell</AmmoName>
      <Variable>Trajectory/DesiredSpeed</Variable>
      <Value>500</Value>
    </AmmoMod>
    <AmmoMod>
      <AmmoName>600mm Heavy Shell</AmmoName>
      <Variable>AreaOfDamage/EndOfLife/Radius</Variable>
      <Value>5</Value>
    </AmmoMod>
    <AmmoMod>
      <AmmoName>600mm Heavy Shell</AmmoName>
      <Variable>AreaOfDamage/EndOfLife/Damage</Variable>
      <Value>60000</Value>
    </AmmoMod>
    <AmmoMod>
      <AmmoName>600mm Heavy Shell</AmmoName>
      <Variable>AreaOfDamage/EndOfLife/Depth</Variable>
      <Value>3</Value>
    </AmmoMod>
    <AmmoMod>
      <AmmoName>600mm Heavy Shell</AmmoName>
      <Variable>AreaOfDamage/EndOfLife/ParticleScale</Variable>
      <Value>2.5</Value>
    </AmmoMod>
    <AmmoMod>
      <AmmoName>AryxWarriorAmmoAP</AmmoName>
      <Variable>BaseDamage</Variable>
      <Value>8000</Value>
    </AmmoMod>
    <AmmoMod>
      <AmmoName>AryxWarriorAmmoAP</AmmoName>
      <Variable>Mass</Variable>
      <Value>30</Value>
    </AmmoMod>
    <AmmoMod>
      <AmmoName>AryxWarriorAmmoAP</AmmoName>
      <Variable>DamageScales/Grids/Large</Variable>
      <Value>2</Value>
    </AmmoMod>
    <AmmoMod>
      <AmmoName>AryxWarriorAmmoAP</AmmoName>
      <Variable>DamageScales/Grids/Small</Variable>
      <Value>-1</Value>
    </AmmoMod>
    <AmmoMod>
      <AmmoName>AryxWarriorAmmoAP</AmmoName>
      <Variable>DamageScales/Armor/Armor</Variable>
      <Value>2</Value>
    </AmmoMod>
    <AmmoMod>
      <AmmoName>AryxWarriorAmmoAP</AmmoName>
      <Variable>DamageScales/Armor/Heavy</Variable>
      <Value>-1</Value>
    </AmmoMod>
    <AmmoMod>
      <AmmoName>AryxWarriorAmmoAP</AmmoName>
      <Variable>DamageScales/Armor/Light</Variable>
      <Value>-1</Value>
    </AmmoMod>
    <AmmoMod>
      <AmmoName>AryxWarriorAmmoAP</AmmoName>
      <Variable>DamageScales/Armor/NonArmor</Variable>
      <Value>2</Value>
    </AmmoMod>
    <AmmoMod>
      <AmmoName>AryxWarriorAmmoAP</AmmoName>
      <Variable>Trajectory/MaxTrajectory</Variable>
      <Value>2500</Value>
    </AmmoMod>
    <AmmoMod>
      <AmmoName>AryxWarriorAmmoAP</AmmoName>
      <Variable>Trajectory/DesiredSpeed</Variable>
      <Value>600</Value>
    </AmmoMod>
    <AmmoMod>
      <AmmoName>AryxWarriorAmmoAP</AmmoName>
      <Variable>AreaOfDamage/EndOfLife/ParticleScale</Variable>
      <Value>1.1</Value>
    </AmmoMod>
    <AmmoMod>
      <AmmoName>25mm CODEX Ammunition</AmmoName>
      <Variable>BaseDamage</Variable>
      <Value>400</Value>
    </AmmoMod>
    <AmmoMod>
      <AmmoName>25mm CODEX Ammunition</AmmoName>
      <Variable>Mass</Variable>
      <Value>1</Value>
    </AmmoMod>
    <AmmoMod>
      <AmmoName>25mm CODEX Ammunition</AmmoName>
      <Variable>DamageScales/Grids/Large</Variable>
      <Value>2</Value>
    </AmmoMod>
    <AmmoMod>
      <AmmoName>25mm CODEX Ammunition</AmmoName>
      <Variable>DamageScales/Grids/Small</Variable>
      <Value>5</Value>
    </AmmoMod>
    <AmmoMod>
      <AmmoName>25mm CODEX Ammunition</AmmoName>
      <Variable>DamageScales/Armor/Armor</Variable>
      <Value>-1</Value>
    </AmmoMod>
    <AmmoMod>
      <AmmoName>25mm CODEX Ammunition</AmmoName>
      <Variable>DamageScales/Armor/Heavy</Variable>
      <Value>3</Value>
    </AmmoMod>
    <AmmoMod>
      <AmmoName>25mm CODEX Ammunition</AmmoName>
      <Variable>DamageScales/Armor/Light</Variable>
      <Value>-1</Value>
    </AmmoMod>
    <AmmoMod>
      <AmmoName>25mm CODEX Ammunition</AmmoName>
      <Variable>DamageScales/Armor/NonArmor</Variable>
      <Value>-1</Value>
    </AmmoMod>
    <AmmoMod>
      <AmmoName>25mm CODEX Ammunition</AmmoName>
      <Variable>Trajectory/MaxTrajectory</Variable>
      <Value>1000</Value>
    </AmmoMod>
    <AmmoMod>
      <AmmoName>25mm CODEX Ammunition</AmmoName>
      <Variable>Trajectory/DesiredSpeed</Variable>
      <Value>800</Value>
    </AmmoMod>
    <AmmoMod>
      <AmmoName>120mm Heavy Shell [Storm]</AmmoName>
      <Variable>BaseDamage</Variable>
      <Value>10000</Value>
    </AmmoMod>
    <AmmoMod>
      <AmmoName>120mm Heavy Shell [Storm]</AmmoName>
      <Variable>Mass</Variable>
      <Value>625</Value>
    </AmmoMod>
    <AmmoMod>
      <AmmoName>120mm Heavy Shell [Storm]</AmmoName>
      <Variable>DamageScales/Grids/Large</Variable>
      <Value>3</Value>
    </AmmoMod>
    <AmmoMod>
      <AmmoName>120mm Heavy Shell [Storm]</AmmoName>
      <Variable>DamageScales/Grids/Small</Variable>
      <Value>-1</Value>
    </AmmoMod>
    <AmmoMod>
      <AmmoName>120mm Heavy Shell [Storm]</AmmoName>
      <Variable>DamageScales/Armor/Armor</Variable>
      <Value>-1</Value>
    </AmmoMod>
    <AmmoMod>
      <AmmoName>120mm Heavy Shell [Storm]</AmmoName>
      <Variable>DamageScales/Armor/Heavy</Variable>
      <Value>2</Value>
    </AmmoMod>
    <AmmoMod>
      <AmmoName>120mm Heavy Shell [Storm]</AmmoName>
      <Variable>DamageScales/Armor/Light</Variable>
      <Value>0.5</Value>
    </AmmoMod>
    <AmmoMod>
      <AmmoName>120mm Heavy Shell [Storm]</AmmoName>
      <Variable>DamageScales/Armor/NonArmor</Variable>
      <Value>-1</Value>
    </AmmoMod>
    <AmmoMod>
      <AmmoName>120mm Heavy Shell [Storm]</AmmoName>
      <Variable>Trajectory/MaxTrajectory</Variable>
      <Value>1800</Value>
    </AmmoMod>
    <AmmoMod>
      <AmmoName>120mm Heavy Shell [Storm]</AmmoName>
      <Variable>Trajectory/DesiredSpeed</Variable>
      <Value>550</Value>
    </AmmoMod>
    <AmmoMod>
      <AmmoName>120mm Heavy Shell [Storm]</AmmoName>
      <Variable>AreaOfDamage/EndOfLife/Radius</Variable>
      <Value>3</Value>
    </AmmoMod>
    <AmmoMod>
      <AmmoName>120mm Heavy Shell [Storm]</AmmoName>
      <Variable>AreaOfDamage/EndOfLife/Damage</Variable>
      <Value>20000</Value>
    </AmmoMod>
    <AmmoMod>
      <AmmoName>120mm Heavy Shell [Storm]</AmmoName>
      <Variable>AreaOfDamage/EndOfLife/Depth</Variable>
      <Value>1.5</Value>
    </AmmoMod>
    <AmmoMod>
      <AmmoName>120mm Heavy Shell [Storm]</AmmoName>
      <Variable>AreaOfDamage/EndOfLife/ParticleScale</Variable>
      <Value>0.5</Value>
    </AmmoMod>
    <AmmoMod>
      <AmmoName>240mm Heavy Shell</AmmoName>
      <Variable>BaseDamage</Variable>
      <Value>17000</Value>
    </AmmoMod>
    <AmmoMod>
      <AmmoName>240mm Heavy Shell</AmmoName>
      <Variable>Mass</Variable>
      <Value>1250</Value>
    </AmmoMod>
    <AmmoMod>
      <AmmoName>240mm Heavy Shell</AmmoName>
      <Variable>DamageScales/Grids/Large</Variable>
      <Value>3</Value>
    </AmmoMod>
    <AmmoMod>
      <AmmoName>240mm Heavy Shell</AmmoName>
      <Variable>DamageScales/Grids/Small</Variable>
      <Value>-1</Value>
    </AmmoMod>
    <AmmoMod>
      <AmmoName>240mm Heavy Shell</AmmoName>
      <Variable>DamageScales/Armor/Armor</Variable>
      <Value>-1</Value>
    </AmmoMod>
    <AmmoMod>
      <AmmoName>240mm Heavy Shell</AmmoName>
      <Variable>DamageScales/Armor/Heavy</Variable>
      <Value>2</Value>
    </AmmoMod>
    <AmmoMod>
      <AmmoName>240mm Heavy Shell</AmmoName>
      <Variable>DamageScales/Armor/Light</Variable>
      <Value>0.5</Value>
    </AmmoMod>
    <AmmoMod>
      <AmmoName>240mm Heavy Shell</AmmoName>
      <Variable>DamageScales/Armor/NonArmor</Variable>
      <Value>-1</Value>
    </AmmoMod>
    <AmmoMod>
      <AmmoName>240mm Heavy Shell</AmmoName>
      <Variable>Trajectory/MaxTrajectory</Variable>
      <Value>2300</Value>
    </AmmoMod>
    <AmmoMod>
      <AmmoName>240mm Heavy Shell</AmmoName>
      <Variable>Trajectory/DesiredSpeed</Variable>
      <Value>550</Value>
    </AmmoMod>
    <AmmoMod>
      <AmmoName>240mm Heavy Shell</AmmoName>
      <Variable>AreaOfDamage/EndOfLife/Radius</Variable>
      <Value>3</Value>
    </AmmoMod>
    <AmmoMod>
      <AmmoName>240mm Heavy Shell</AmmoName>
      <Variable>AreaOfDamage/EndOfLife/Damage</Variable>
      <Value>30000</Value>
    </AmmoMod>
    <AmmoMod>
      <AmmoName>240mm Heavy Shell</AmmoName>
      <Variable>AreaOfDamage/EndOfLife/Depth</Variable>
      <Value>1.5</Value>
    </AmmoMod>
    <AmmoMod>
      <AmmoName>240mm Heavy Shell [Windfall]</AmmoName>
      <Variable>BaseDamage</Variable>
      <Value>17000</Value>
    </AmmoMod>
    <AmmoMod>
      <AmmoName>240mm Heavy Shell [Windfall]</AmmoName>
      <Variable>Mass</Variable>
      <Value>1250</Value>
    </AmmoMod>
    <AmmoMod>
      <AmmoName>240mm Heavy Shell [Windfall]</AmmoName>
      <Variable>DamageScales/Grids/Large</Variable>
      <Value>3</Value>
    </AmmoMod>
    <AmmoMod>
      <AmmoName>240mm Heavy Shell [Windfall]</AmmoName>
      <Variable>DamageScales/Grids/Small</Variable>
      <Value>-1</Value>
    </AmmoMod>
    <AmmoMod>
      <AmmoName>240mm Heavy Shell [Windfall]</AmmoName>
      <Variable>DamageScales/Armor/Armor</Variable>
      <Value>-1</Value>
    </AmmoMod>
    <AmmoMod>
      <AmmoName>240mm Heavy Shell [Windfall]</AmmoName>
      <Variable>DamageScales/Armor/Heavy</Variable>
      <Value>2</Value>
    </AmmoMod>
    <AmmoMod>
      <AmmoName>240mm Heavy Shell [Windfall]</AmmoName>
      <Variable>DamageScales/Armor/Light</Variable>
      <Value>0.5</Value>
    </AmmoMod>
    <AmmoMod>
      <AmmoName>240mm Heavy Shell [Windfall]</AmmoName>
      <Variable>DamageScales/Armor/NonArmor</Variable>
      <Value>-1</Value>
    </AmmoMod>
    <AmmoMod>
      <AmmoName>240mm Heavy Shell [Windfall]</AmmoName>
      <Variable>Trajectory/MaxTrajectory</Variable>
      <Value>2300</Value>
    </AmmoMod>
    <AmmoMod>
      <AmmoName>240mm Heavy Shell [Windfall]</AmmoName>
      <Variable>Trajectory/DesiredSpeed</Variable>
      <Value>550</Value>
    </AmmoMod>
    <AmmoMod>
      <AmmoName>240mm Heavy Shell [Windfall]</AmmoName>
      <Variable>AreaOfDamage/EndOfLife/Radius</Variable>
      <Value>3</Value>
    </AmmoMod>
    <AmmoMod>
      <AmmoName>240mm Heavy Shell [Windfall]</AmmoName>
      <Variable>AreaOfDamage/EndOfLife/Damage</Variable>
      <Value>30000</Value>
    </AmmoMod>
    <AmmoMod>
      <AmmoName>240mm Heavy Shell [Windfall]</AmmoName>
      <Variable>AreaOfDamage/EndOfLife/Depth</Variable>
      <Value>1.5</Value>
    </AmmoMod>
    <AmmoMod>
      <AmmoName>AryxGaussAmmoWC</AmmoName>
      <Variable>BaseDamage</Variable>
      <Value>250000</Value>
    </AmmoMod>
    <AmmoMod>
      <AmmoName>AryxGaussAmmoWC</AmmoName>
      <Variable>Mass</Variable>
      <Value>5000</Value>
    </AmmoMod>
    <AmmoMod>
      <AmmoName>AryxGaussAmmoWC</AmmoName>
      <Variable>DamageScales/Grids/Large</Variable>
      <Value>2</Value>
    </AmmoMod>
    <AmmoMod>
      <AmmoName>AryxGaussAmmoWC</AmmoName>
      <Variable>DamageScales/Grids/Small</Variable>
      <Value>2</Value>
    </AmmoMod>
    <AmmoMod>
      <AmmoName>AryxGaussAmmoWC</AmmoName>
      <Variable>DamageScales/Armor/Armor</Variable>
      <Value>2</Value>
    </AmmoMod>
    <AmmoMod>
      <AmmoName>AryxGaussAmmoWC</AmmoName>
      <Variable>DamageScales/Armor/Heavy</Variable>
      <Value>2</Value>
    </AmmoMod>
    <AmmoMod>
      <AmmoName>AryxGaussAmmoWC</AmmoName>
      <Variable>DamageScales/Armor/Light</Variable>
      <Value>2</Value>
    </AmmoMod>
    <AmmoMod>
      <AmmoName>AryxGaussAmmoWC</AmmoName>
      <Variable>DamageScales/Armor/NonArmor</Variable>
      <Value>8</Value>
    </AmmoMod>
    <AmmoMod>
      <AmmoName>AryxGaussAmmoWC</AmmoName>
      <Variable>Trajectory/MaxTrajectory</Variable>
      <Value>3000</Value>
    </AmmoMod>
    <AmmoMod>
      <AmmoName>Spooky Laser</AmmoName>
      <Variable>DamageScales/Characters</Variable>
      <Value>4000</Value>
    </AmmoMod>
    <AmmoMod>
      <AmmoName>Spooky Laser</AmmoName>
      <Variable>DamageScales/Grids/Large</Variable>
      <Value>-1</Value>
    </AmmoMod>
    <AmmoMod>
      <AmmoName>Spooky Laser</AmmoName>
      <Variable>DamageScales/Grids/Small</Variable>
      <Value>-1</Value>
    </AmmoMod>
    <AmmoMod>
      <AmmoName>Spooky Laser</AmmoName>
      <Variable>DamageScales/Armor/Armor</Variable>
      <Value>-1</Value>
    </AmmoMod>
    <AmmoMod>
      <AmmoName>Spooky Laser</AmmoName>
      <Variable>DamageScales/Armor/Heavy</Variable>
      <Value>-1</Value>
    </AmmoMod>
    <AmmoMod>
      <AmmoName>Spooky Laser</AmmoName>
      <Variable>DamageScales/Armor/Light</Variable>
      <Value>-1</Value>
    </AmmoMod>
    <AmmoMod>
      <AmmoName>Spooky Laser</AmmoName>
      <Variable>DamageScales/Armor/NonArmor</Variable>
      <Value>-1</Value>
    </AmmoMod>
    <AmmoMod>
      <AmmoName>Spooky Laser</AmmoName>
      <Variable>DamageScales/DamageType/Base</Variable>
      <Value>Kinetic</Value>
    </AmmoMod>
    <AmmoMod>
      <AmmoName>Spooky Laser</AmmoName>
      <Variable>DamageScales/DamageType/AreaEffect</Variable>
      <Value>Kinetic</Value>
    </AmmoMod>
    <AmmoMod>
      <AmmoName>Spooky Laser</AmmoName>
      <Variable>DamageScales/DamageType/Detonation</Variable>
      <Value>Kinetic</Value>
    </AmmoMod>
    <AmmoMod>
      <AmmoName>AryxNucleonLaserAmmo</AmmoName>
      <Variable>DamageScales/DamageType/Base</Variable>
      <Value>Kinetic</Value>
    </AmmoMod>
    <AmmoMod>
      <AmmoName>AryxNucleonLaserAmmo</AmmoName>
      <Variable>DamageScales/DamageType/AreaEffect</Variable>
      <Value>Kinetic</Value>
    </AmmoMod>
    <AmmoMod>
      <AmmoName>AryxNucleonLaserAmmo</AmmoName>
      <Variable>DamageScales/DamageType/Detonation</Variable>
      <Value>Kinetic</Value>
    </AmmoMod>
    <AmmoMod>
      <AmmoName>AryxAuroraAmmo</AmmoName>
      <Variable>DamageScales/DamageType/Base</Variable>
      <Value>Kinetic</Value>
    </AmmoMod>
    <AmmoMod>
      <AmmoName>AryxAuroraAmmo</AmmoName>
      <Variable>DamageScales/DamageType/AreaEffect</Variable>
      <Value>Kinetic</Value>
    </AmmoMod>
    <AmmoMod>
      <AmmoName>AryxAuroraAmmo</AmmoName>
      <Variable>DamageScales/DamageType/Detonation</Variable>
      <Value>Kinetic</Value>
    </AmmoMod>
    <AmmoMod>
      <AmmoName>Spartan Energy Bolt</AmmoName>
      <Variable>DamageScales/DamageType/Base</Variable>
      <Value>Kinetic</Value>
    </AmmoMod>
    <AmmoMod>
      <AmmoName>Spartan Energy Bolt</AmmoName>
      <Variable>DamageScales/DamageType/AreaEffect</Variable>
      <Value>Kinetic</Value>
    </AmmoMod>
    <AmmoMod>
      <AmmoName>Spartan Energy Bolt</AmmoName>
      <Variable>DamageScales/DamageType/Detonation</Variable>
      <Value>Kinetic</Value>
    </AmmoMod>
    <AmmoMod>
      <AmmoName>Helios Energy Bolt</AmmoName>
      <Variable>EnergyCost</Variable>
      <Value>0.15</Value>
    </AmmoMod>
    <AmmoMod>
      <AmmoName>Helios Energy Bolt</AmmoName>
      <Variable>BaseDamage</Variable>
      <Value>20000</Value>
    </AmmoMod>
    <AmmoMod>
      <AmmoName>Helios Energy Bolt</AmmoName>
      <Variable>DamageScales/Grids/Large</Variable>
      <Value>2</Value>
    </AmmoMod>
    <AmmoMod>
      <AmmoName>Helios Energy Bolt</AmmoName>
      <Variable>DamageScales/Grids/Small</Variable>
      <Value>1.5</Value>
    </AmmoMod>
    <AmmoMod>
      <AmmoName>Helios Energy Bolt</AmmoName>
      <Variable>DamageScales/Armor/Armor</Variable>
      <Value>-1</Value>
    </AmmoMod>
    <AmmoMod>
      <AmmoName>Helios Energy Bolt</AmmoName>
      <Variable>DamageScales/Armor/Heavy</Variable>
      <Value>4</Value>
    </AmmoMod>
    <AmmoMod>
      <AmmoName>Helios Energy Bolt</AmmoName>
      <Variable>DamageScales/Armor/Light</Variable>
      <Value>-1</Value>
    </AmmoMod>
    <AmmoMod>
      <AmmoName>Helios Energy Bolt</AmmoName>
      <Variable>DamageScales/Armor/NonArmor</Variable>
      <Value>3</Value>
    </AmmoMod>
    <AmmoMod>
      <AmmoName>Helios Energy Bolt</AmmoName>
      <Variable>DamageScales/DamageType/Base</Variable>
      <Value>Kinetic</Value>
    </AmmoMod>
    <AmmoMod>
      <AmmoName>Helios Energy Bolt</AmmoName>
      <Variable>DamageScales/DamageType/AreaEffect</Variable>
      <Value>Kinetic</Value>
    </AmmoMod>
    <AmmoMod>
      <AmmoName>Helios Energy Bolt</AmmoName>
      <Variable>DamageScales/DamageType/Detonation</Variable>
      <Value>Kinetic</Value>
    </AmmoMod>
    <AmmoMod>
      <AmmoName>Helios Energy Bolt</AmmoName>
      <Variable>Trajectory/MaxTrajectory</Variable>
      <Value>2500</Value>
    </AmmoMod>
    <AmmoMod>
      <AmmoName>Helios Energy Bolt</AmmoName>
      <Variable>Trajectory/DesiredSpeed</Variable>
      <Value>800</Value>
    </AmmoMod>
    <AmmoMod>
      <AmmoName>Helios Energy Bolt</AmmoName>
      <Variable>AreaOfDamage/ByBlockHit/Enable</Variable>
      <Value>True</Value>
    </AmmoMod>
    <AmmoMod>
      <AmmoName>Helios Energy Bolt</AmmoName>
      <Variable>AreaOfDamage/ByBlockHit/Radius</Variable>
      <Value>1.2000000476837158</Value>
    </AmmoMod>
    <AmmoMod>
      <AmmoName>Helios Energy Bolt</AmmoName>
      <Variable>AreaOfDamage/ByBlockHit/Damage</Variable>
      <Value>10000</Value>
    </AmmoMod>
    <AmmoMod>
      <AmmoName>Helios Energy Bolt</AmmoName>
      <Variable>AreaOfDamage/ByBlockHit/Depth</Variable>
      <Value>3</Value>
    </AmmoMod>
    <AmmoMod>
      <AmmoName>Helios Energy Bolt</AmmoName>
      <Variable>AreaOfDamage/EndOfLife/Radius</Variable>
      <Value>2</Value>
    </AmmoMod>
    <AmmoMod>
      <AmmoName>Helios Energy Bolt</AmmoName>
      <Variable>AreaOfDamage/EndOfLife/Damage</Variable>
      <Value>25000</Value>
    </AmmoMod>
    <AmmoMod>
      <AmmoName>Helios Energy Bolt</AmmoName>
      <Variable>AreaOfDamage/EndOfLife/Depth</Variable>
      <Value>3</Value>
    </AmmoMod>
    <AmmoMod>
      <AmmoName>Medusa Phase Bolt T01</AmmoName>
      <Variable>DamageScales/DamageType/Base</Variable>
      <Value>Kinetic</Value>
    </AmmoMod>
    <AmmoMod>
      <AmmoName>Medusa Phase Bolt T01</AmmoName>
      <Variable>DamageScales/DamageType/AreaEffect</Variable>
      <Value>Kinetic</Value>
    </AmmoMod>
    <AmmoMod>
      <AmmoName>Medusa Phase Bolt T01</AmmoName>
      <Variable>DamageScales/DamageType/Detonation</Variable>
      <Value>Kinetic</Value>
    </AmmoMod>
    <AmmoMod>
      <AmmoName>Medusa Phase Bolt T02</AmmoName>
      <Variable>DamageScales/DamageType/Base</Variable>
      <Value>Kinetic</Value>
    </AmmoMod>
    <AmmoMod>
      <AmmoName>Medusa Phase Bolt T02</AmmoName>
      <Variable>DamageScales/DamageType/AreaEffect</Variable>
      <Value>Kinetic</Value>
    </AmmoMod>
    <AmmoMod>
      <AmmoName>Medusa Phase Bolt T02</AmmoName>
      <Variable>DamageScales/DamageType/Detonation</Variable>
      <Value>Kinetic</Value>
    </AmmoMod>
    <AmmoMod>
      <AmmoName>Medusa Phase Bolt T03</AmmoName>
      <Variable>DamageScales/DamageType/Base</Variable>
      <Value>Kinetic</Value>
    </AmmoMod>
    <AmmoMod>
      <AmmoName>Medusa Phase Bolt T03</AmmoName>
      <Variable>DamageScales/DamageType/AreaEffect</Variable>
      <Value>Kinetic</Value>
    </AmmoMod>
    <AmmoMod>
      <AmmoName>Medusa Phase Bolt T03</AmmoName>
      <Variable>DamageScales/DamageType/Detonation</Variable>
      <Value>Kinetic</Value>
    </AmmoMod>
    <AmmoMod>
      <AmmoName>Medusa Phase Bolt T04</AmmoName>
      <Variable>DamageScales/DamageType/Base</Variable>
      <Value>Kinetic</Value>
    </AmmoMod>
    <AmmoMod>
      <AmmoName>Medusa Phase Bolt T04</AmmoName>
      <Variable>DamageScales/DamageType/AreaEffect</Variable>
      <Value>Kinetic</Value>
    </AmmoMod>
    <AmmoMod>
      <AmmoName>Medusa Phase Bolt T04</AmmoName>
      <Variable>DamageScales/DamageType/Detonation</Variable>
      <Value>Kinetic</Value>
    </AmmoMod>
    <AmmoMod>
      <AmmoName>AryxReaperAmmoWC</AmmoName>
      <Variable>DamageScales/DamageType/Base</Variable>
      <Value>Kinetic</Value>
    </AmmoMod>
    <AmmoMod>
      <AmmoName>AryxReaperAmmoWC</AmmoName>
      <Variable>DamageScales/DamageType/AreaEffect</Variable>
      <Value>Kinetic</Value>
    </AmmoMod>
    <AmmoMod>
      <AmmoName>AryxReaperAmmoWC</AmmoName>
      <Variable>DamageScales/DamageType/Detonation</Variable>
      <Value>Kinetic</Value>
    </AmmoMod>
    <AmmoMod>
      <AmmoName>Reaper Antimatter Bolt</AmmoName>
      <Variable>DamageScales/DamageType/Base</Variable>
      <Value>Kinetic</Value>
    </AmmoMod>
    <AmmoMod>
      <AmmoName>Reaper Antimatter Bolt</AmmoName>
      <Variable>DamageScales/DamageType/AreaEffect</Variable>
      <Value>Kinetic</Value>
    </AmmoMod>
    <AmmoMod>
      <AmmoName>Reaper Antimatter Bolt</AmmoName>
      <Variable>DamageScales/DamageType/Detonation</Variable>
      <Value>Kinetic</Value>
    </AmmoMod>
    <AmmoMod>
      <AmmoName>Trident Plasma Beam</AmmoName>
      <Variable>DamageScales/DamageType/Base</Variable>
      <Value>Kinetic</Value>
    </AmmoMod>
    <AmmoMod>
      <AmmoName>Trident Plasma Beam</AmmoName>
      <Variable>DamageScales/DamageType/AreaEffect</Variable>
      <Value>Kinetic</Value>
    </AmmoMod>
    <AmmoMod>
      <AmmoName>Trident Plasma Beam</AmmoName>
      <Variable>DamageScales/DamageType/Detonation</Variable>
      <Value>Kinetic</Value>
    </AmmoMod>
    <AmmoMod>
      <AmmoName>Argus Laser</AmmoName>
      <Variable>DamageScales/DamageType/Base</Variable>
      <Value>Kinetic</Value>
    </AmmoMod>
    <AmmoMod>
      <AmmoName>Argus Laser</AmmoName>
      <Variable>DamageScales/DamageType/AreaEffect</Variable>
      <Value>Kinetic</Value>
    </AmmoMod>
    <AmmoMod>
      <AmmoName>Argus Laser</AmmoName>
      <Variable>DamageScales/DamageType/Detonation</Variable>
      <Value>Kinetic</Value>
    </AmmoMod>
    <AmmoMod>
      <AmmoName>Zarya Pulse Laser</AmmoName>
      <Variable>DamageScales/DamageType/Base</Variable>
      <Value>Kinetic</Value>
    </AmmoMod>
    <AmmoMod>
      <AmmoName>Zarya Pulse Laser</AmmoName>
      <Variable>DamageScales/DamageType/AreaEffect</Variable>
      <Value>Kinetic</Value>
    </AmmoMod>
    <AmmoMod>
      <AmmoName>Zarya Pulse Laser</AmmoName>
      <Variable>DamageScales/DamageType/Detonation</Variable>
      <Value>Kinetic</Value>
    </AmmoMod>
    <AmmoMod>
      <AmmoName>AryxPDRailgunAmmo</AmmoName>
      <Variable>EnergyCost</Variable>
      <Value>0.05</Value>
    </AmmoMod>
    <AmmoMod>
      <AmmoName>AryxPDRailgunAmmo</AmmoName>
      <Variable>BaseDamage</Variable>
      <Value>30000</Value>
    </AmmoMod>
    <AmmoMod>
      <AmmoName>AryxPDRailgunAmmo</AmmoName>
      <Variable>Mass</Variable>
      <Value>500</Value>
    </AmmoMod>
    <AmmoMod>
      <AmmoName>AryxPDRailgunAmmo</AmmoName>
      <Variable>DamageScales/Grids/Large</Variable>
      <Value>2</Value>
    </AmmoMod>
    <AmmoMod>
      <AmmoName>AryxPDRailgunAmmo</AmmoName>
      <Variable>DamageScales/Grids/Small</Variable>
      <Value>0.5</Value>
    </AmmoMod>
    <AmmoMod>
      <AmmoName>AryxPDRailgunAmmo</AmmoName>
      <Variable>DamageScales/Armor/Armor</Variable>
      <Value>1</Value>
    </AmmoMod>
    <AmmoMod>
      <AmmoName>AryxPDRailgunAmmo</AmmoName>
      <Variable>DamageScales/Armor/Heavy</Variable>
      <Value>1</Value>
    </AmmoMod>
    <AmmoMod>
      <AmmoName>AryxPDRailgunAmmo</AmmoName>
      <Variable>DamageScales/Armor/Light</Variable>
      <Value>1</Value>
    </AmmoMod>
    <AmmoMod>
      <AmmoName>AryxPDRailgunAmmo</AmmoName>
      <Variable>DamageScales/Armor/NonArmor</Variable>
      <Value>5</Value>
    </AmmoMod>
    <AmmoMod>
      <AmmoName>AryxPDRailgunAmmo</AmmoName>
      <Variable>Trajectory/MaxTrajectory</Variable>
      <Value>3000</Value>
    </AmmoMod>
    <AmmoMod>
      <AmmoName>AryxSmallFocusBeamAmmo</AmmoName>
      <Variable>DamageScales/DamageType/Base</Variable>
      <Value>Kinetic</Value>
    </AmmoMod>
    <AmmoMod>
      <AmmoName>AryxSmallFocusBeamAmmo</AmmoName>
      <Variable>DamageScales/DamageType/AreaEffect</Variable>
      <Value>Kinetic</Value>
    </AmmoMod>
    <AmmoMod>
      <AmmoName>AryxSmallFocusBeamAmmo</AmmoName>
      <Variable>DamageScales/DamageType/Detonation</Variable>
      <Value>Kinetic</Value>
    </AmmoMod>
    <AmmoMod>
      <AmmoName>AryxSmallFocusPulseAmmo</AmmoName>
      <Variable>DamageScales/DamageType/Base</Variable>
      <Value>Kinetic</Value>
    </AmmoMod>
    <AmmoMod>
      <AmmoName>AryxSmallFocusPulseAmmo</AmmoName>
      <Variable>DamageScales/DamageType/AreaEffect</Variable>
      <Value>Kinetic</Value>
    </AmmoMod>
    <AmmoMod>
      <AmmoName>AryxSmallFocusPulseAmmo</AmmoName>
      <Variable>DamageScales/DamageType/Detonation</Variable>
      <Value>Kinetic</Value>
    </AmmoMod>
    <AmmoMod>
      <AmmoName>Gladius Missile Launched</AmmoName>
      <Variable>Fragment/Fragments</Variable>
      <Value>50</Value>
    </AmmoMod>
    <AmmoMod>
      <AmmoName>Devastator Fusion Torpedo</AmmoName>
      <Variable>DamageScales/DamageType/AreaEffect</Variable>
      <Value>Kinetic</Value>
    </AmmoMod>
    <AmmoMod>
      <AmmoName>Devastator Fusion Torpedo</AmmoName>
      <Variable>DamageScales/DamageType/Detonation</Variable>
      <Value>Kinetic</Value>
    </AmmoMod>
    <AmmoMod>
      <AmmoName>Sabre Missile</AmmoName>
      <Variable>DamageScales/DamageType/Detonation</Variable>
      <Value>Kinetic</Value>
    </AmmoMod>
    <AmmoMod>
      <AmmoName>Sabre Missile Full Speed</AmmoName>
      <Variable>DamageScales/DamageType/Detonation</Variable>
      <Value>Kinetic</Value>
    </AmmoMod>
    <AmmoMod>
      <AmmoName>Shrike Bomb</AmmoName>
      <Variable>DamageScales/Armor/Heavy</Variable>
      <Value>4</Value>
    </AmmoMod>
    <AmmoMod>
      <AmmoName>Shrike Bomb</AmmoName>
      <Variable>DamageScales/Armor/Light</Variable>
      <Value>-1</Value>
    </AmmoMod>
    <AmmoMod>
      <AmmoName>Shrike Bomb</AmmoName>
      <Variable>DamageScales/Armor/NonArmor</Variable>
      <Value>-1</Value>
    </AmmoMod>
    <AmmoMod>
      <AmmoName>Shrike Bomb</AmmoName>
      <Variable>Trajectory/MaxTrajectory</Variable>
      <Value>2000</Value>
    </AmmoMod>
    <AmmoMod>
      <AmmoName>Shrike Bomb</AmmoName>
      <Variable>Fragment/Fragments</Variable>
      <Value>10</Value>
    </AmmoMod>
    <AmmoMod>
      <AmmoName>Shrike Bomb</AmmoName>
      <Variable>AreaOfDamage/EndOfLife/Damage</Variable>
      <Value>250000</Value>
    </AmmoMod>
  </Ammos>
  <Weapons>
    <WeaponMod>
      <BlockSubType>ARYX_Fixed_Chord_auto</BlockSubType>
      <PartName>AC-54 Chord</PartName>
      <Variable>Targeting/MaxTargetDistance</Variable>
      <Value>0</Value>
    </WeaponMod>
    <WeaponMod>
      <BlockSubType>ARYX_Fixed_Chord_auto</BlockSubType>
      <PartName>AC-54 Chord</PartName>
      <Variable>HardPoint/Loading/RateOfFire</Variable>
      <Value>200</Value>
    </WeaponMod>
    <WeaponMod>
      <BlockSubType>ARYX_ChordAutocannon_SG</BlockSubType>
      <PartName>AC-54 Chord</PartName>
      <Variable>Targeting/MaxTargetDistance</Variable>
      <Value>1300</Value>
    </WeaponMod>
    <WeaponMod>
      <BlockSubType>ARYX_ChordAutocannon_SG</BlockSubType>
      <PartName>AC-54 Chord</PartName>
      <Variable>HardPoint/Loading/RateOfFire</Variable>
      <Value>140</Value>
    </WeaponMod>
    <WeaponMod>
      <BlockSubType>ARYXCycloneCannon</BlockSubType>
      <PartName>Cyclone Heavy Cannon</PartName>
      <Variable>Targeting/MaxTargetDistance</Variable>
      <Value>2300</Value>
    </WeaponMod>
    <WeaponMod>
      <BlockSubType>ARYXCycloneCannon</BlockSubType>
      <PartName>Cyclone Heavy Cannon</PartName>
      <Variable>HardPoint/Loading/ReloadTime</Variable>
      <Value>400</Value>
    </WeaponMod>
    <WeaponMod>
      <BlockSubType>ARYXCycloneCannon</BlockSubType>
      <PartName>Cyclone Heavy Cannon</PartName>
      <Variable>HardPoint/HardWare/RotateRate</Variable>
      <Value>0.007</Value>
    </WeaponMod>
    <WeaponMod>
      <BlockSubType>ARYXCycloneCannon</BlockSubType>
      <PartName>Cyclone Heavy Cannon</PartName>
      <Variable>HardPoint/HardWare/ElevateRate</Variable>
      <Value>0.007</Value>
    </WeaponMod>
    <WeaponMod>
      <BlockSubType>ARYXHurricaneCannon</BlockSubType>
      <PartName>Hurricane Heavy Cannon</PartName>
      <Variable>Targeting/MaxTargetDistance</Variable>
      <Value>2500</Value>
    </WeaponMod>
    <WeaponMod>
      <BlockSubType>ARYXStormCannon</BlockSubType>
      <PartName>Storm Light Cannon</PartName>
      <Variable>Targeting/MaxTargetDistance</Variable>
      <Value>1800</Value>
    </WeaponMod>
    <WeaponMod>
      <BlockSubType>ARYXStormCannon</BlockSubType>
      <PartName>Storm Light Cannon</PartName>
      <Variable>HardPoint/Loading/ReloadTime</Variable>
      <Value>300</Value>
    </WeaponMod>
    <WeaponMod>
      <BlockSubType>ARYXTempestCannon</BlockSubType>
      <PartName>Tempest Heavy Cannon</PartName>
      <Variable>Targeting/MaxTargetDistance</Variable>
      <Value>3000</Value>
    </WeaponMod>
    <WeaponMod>
      <BlockSubType>ARYXTempestCannon</BlockSubType>
      <PartName>Tempest Heavy Cannon</PartName>
      <Variable>HardPoint/Loading/ReloadTime</Variable>
      <Value>700</Value>
    </WeaponMod>
    <WeaponMod>
      <BlockSubType>ARYXTsunamiCannon</BlockSubType>
      <PartName>Tsunami Heavy Cannon</PartName>
      <Variable>Targeting/MaxTargetDistance</Variable>
      <Value>2500</Value>
    </WeaponMod>
    <WeaponMod>
      <BlockSubType>ARYXTsunamiCannon</BlockSubType>
      <PartName>Tsunami Heavy Cannon</PartName>
      <Variable>HardPoint/Loading/ReloadTime</Variable>
      <Value>450</Value>
    </WeaponMod>
    <WeaponMod>
      <BlockSubType>ARYXTyphoonCannon</BlockSubType>
      <PartName>Typhoon Heavy Cannon</PartName>
      <Variable>Targeting/MaxTargetDistance</Variable>
      <Value>3000</Value>
    </WeaponMod>
    <WeaponMod>
      <BlockSubType>ARYXWindfallCannon</BlockSubType>
      <PartName>Windfall Heavy Cannon</PartName>
      <Variable>Targeting/MaxTargetDistance</Variable>
      <Value>2500</Value>
    </WeaponMod>
    <WeaponMod>
      <BlockSubType>ARYXBurstTurret / ARYXBurstTurretSlanted</BlockSubType>
      <PartName>Punisher Burst Cannon</PartName>
      <Variable>Targeting/MaxTargetDistance</Variable>
      <Value>1500</Value>
    </WeaponMod>
    <WeaponMod>
      <BlockSubType>ARYXBurstTurret / ARYXBurstTurretSlanted</BlockSubType>
      <PartName>Punisher Burst Cannon</PartName>
      <Variable>HardPoint/Loading/ShotsInBurst</Variable>
      <Value>8</Value>
    </WeaponMod>
    <WeaponMod>
      <BlockSubType>ARYXCodexPDC_SG</BlockSubType>
      <PartName>25mm Prowler</PartName>
      <Variable>Targeting/MaxTargetDistance</Variable>
      <Value>1000</Value>
    </WeaponMod>
    <WeaponMod>
      <BlockSubType>ARYXCodexPDC_SG</BlockSubType>
      <PartName>25mm Prowler</PartName>
      <Variable>HardPoint/AimingTolerance</Variable>
      <Value>1</Value>
    </WeaponMod>
    <WeaponMod>
      <BlockSubType>ARYXCodexPDC_SG</BlockSubType>
      <PartName>25mm Prowler</PartName>
      <Variable>HardPoint/Loading/RateOfFire</Variable>
      <Value>600</Value>
    </WeaponMod>
    <WeaponMod>
      <BlockSubType>ARYXCodexPDC_SG</BlockSubType>
      <PartName>25mm Prowler</PartName>
      <Variable>HardPoint/Loading/BarrelSpinRate</Variable>
      <Value>600</Value>
    </WeaponMod>
    <WeaponMod>
      <BlockSubType>ARYX_FixedAtlasGatling</BlockSubType>
      <PartName>ATLAS Gatling</PartName>
      <Variable>Targeting/MaxTargetDistance</Variable>
      <Value>1000</Value>
    </WeaponMod>
    <WeaponMod>
      <BlockSubType>ARYX_FixedAtlasGatling</BlockSubType>
      <PartName>ATLAS Gatling</PartName>
      <Variable>HardPoint/Loading/RateOfFire</Variable>
      <Value>900</Value>
    </WeaponMod>
    <WeaponMod>
      <BlockSubType>ARYXVulcanTurret</BlockSubType>
      <PartName>Vulcan Turret</PartName>
      <Variable>Targeting/MaxTargetDistance</Variable>
      <Value>1000</Value>
    </WeaponMod>
    <WeaponMod>
      <BlockSubType>ARYXHeavyMissileSalvoLauncher</BlockSubType>
      <PartName>Poseidon Salvo Launcher</PartName>
      <Variable>Targeting/MaxTargetDistance</Variable>
      <Value>2650</Value>
    </WeaponMod>
    <WeaponMod>
      <BlockSubType>ARYXHeavyMissileSalvoLauncher</BlockSubType>
      <PartName>Poseidon Salvo Launcher</PartName>
      <Variable>Targeting/MinTargetDistance</Variable>
      <Value>800</Value>
    </WeaponMod>
    <WeaponMod>
      <BlockSubType>ARYXOculusLaserBase</BlockSubType>
      <PartName>Oculus Ball-PDL</PartName>
      <Variable>Targeting/MaxTargetDistance</Variable>
      <Value>600</Value>
    </WeaponMod>
    <WeaponMod>
      <BlockSubType>ARYXAuroraLaser</BlockSubType>
      <PartName>Aurora Combat Laser</PartName>
      <Variable>Targeting/IgnoreDumbProjectiles</Variable>
      <Value>True</Value>
    </WeaponMod>
    <WeaponMod>
      <BlockSubType>ARYXAtlasPDC</BlockSubType>
      <PartName>ATLAS PDC</PartName>
      <Variable>Targeting/MaxTargetDistance</Variable>
      <Value>1000</Value>
    </WeaponMod>
    <WeaponMod>
      <BlockSubType>ARYXAtlasPDC</BlockSubType>
      <PartName>ATLAS PDC</PartName>
      <Variable>HardPoint/AimingTolerance</Variable>
      <Value>1</Value>
    </WeaponMod>
    <WeaponMod>
      <BlockSubType>ARYXAtlasPDC</BlockSubType>
      <PartName>ATLAS PDC</PartName>
      <Variable>HardPoint/Loading/RateOfFire</Variable>
      <Value>600</Value>
    </WeaponMod>
    <WeaponMod>
      <BlockSubType>ARYXAtlasPDC</BlockSubType>
      <PartName>ATLAS PDC</PartName>
      <Variable>HardPoint/Loading/BarrelSpinRate</Variable>
      <Value>600</Value>
    </WeaponMod>
    <WeaponMod>
      <BlockSubType>ARYXPlasmaPulser</BlockSubType>
      <PartName>Helios Plasma Cannon</PartName>
      <Variable>HardPoint/Loading/ShotsInBurst</Variable>
      <Value>6</Value>
    </WeaponMod>
    <WeaponMod>
      <BlockSubType>ARYXReaperPulseCannon</BlockSubType>
      <PartName>Reaper Pulse Cannon</PartName>
      <Variable>HardPoint/Loading/ReloadTime</Variable>
      <Value>900</Value>
    </WeaponMod>
    <WeaponMod>
      <BlockSubType>ARYXLightRailgun</BlockSubType>
      <PartName>Antaeus 115mm Railgun</PartName>
      <Variable>HardPoint/Loading/ReloadTime</Variable>
      <Value>480</Value>
    </WeaponMod>
    <WeaponMod>
      <BlockSubType>ARYXSmallBombBay</BlockSubType>
      <PartName>Bomb Launcher</PartName>
      <Variable>Targeting/MaxTargetDistance</Variable>
      <Value>3000</Value>
    </WeaponMod>
    <WeaponMod>
      <BlockSubType>ARYXGladiatorMissileLauncher</BlockSubType>
      <PartName>Gladiator Tactical Launcher</PartName>
      <Variable>HardPoint/Loading/ShotsInBurst</Variable>
      <Value>8</Value>
    </WeaponMod>
    <WeaponMod>
      <BlockSubType>ARYXGladiatorMissileLauncher</BlockSubType>
      <PartName>Gladiator Tactical Launcher</PartName>
      <Variable>HardPoint/Loading/DelayAfterBurst</Variable>
      <Value>1800</Value>
    </WeaponMod>
    <WeaponMod>
      <BlockSubType>ARYXGladiatorMissileLauncher</BlockSubType>
      <PartName>Gladiator Tactical Launcher</PartName>
      <Variable>HardPoint/Loading/GiveUpAfter</Variable>
      <Value>False</Value>
    </WeaponMod>
    <WeaponMod>
      <BlockSubType>ARYXWarriorGatlingGun</BlockSubType>
      <PartName>Warrior Heavy Gatling</PartName>
      <Variable>Targeting/MaxTargetDistance</Variable>
      <Value>2500</Value>
    </WeaponMod>
  </Weapons>
</Modifiers>